Lire et nettoyer les données de cas, puis créer une tableau de données de cas pour l’analyse d’épidémie avec R: Tout sur une seule page
…
# lire les données
# exemple:
# si le chemin d'accès au fichier est "data/raw-data/ebola_cases_2.csv",
# alors:
ebola_confirmed <- rio::import(
  here::here("data", "ebola_cases_2.csv")
) %>%
  dplyr::as_tibble()

# obtenir un aperçu des données
ebola_confirmed

SORTIE

# A tibble: 120 × 4
    year month   day confirm
   <int> <int> <int>   <int>
 1  2014     5    18       1
 2  2014     5    20       2
 3  2014     5    21       4
 4  2014     5    22       6
 5  2014     5    23       1
 6  2014     5    24       2
 7  2014     5    26      10
 8  2014     5    27       8
 9  2014     5    28       2
10  2014     5    29      12
# ℹ 110 more rows
…
R

dplyr::left_join(author, family_author, keep = TRUE) %>%
  dplyr::collect()

SORTIE

Joining with `by = join_by(author_id)`

SORTIE

# A tibble: 4,874 × 4
   author_id.x name         author_id.y rfam_acc
         <int> <chr>              <int> <chr>
 1          44 Osuch I               44 RF01571
 2           2 Argasinska J           2 RF02588
 3           2 Argasinska J           2 RF02587
 4           2 Argasinska J           2 RF02586
 5           2 Argasinska J           2 RF02585
 6           2 Argasinska J           2 RF02549
 7           8 Boursnell C            8 RF02002
 8          56 Weinberg Z            56 RF01741
 9          39 Moxon SJ              39 RF00496
10          39 Moxon SJ              39 RF00469
# ℹ 4,864 more rows
…
# importer les donnees a partir de DHIS2 en utilisant les noms
data <- readepi::read_dhis2(
  login = dhis2_login,
  org_unit = "Keneba",
  program = "Child Registration & Treatment "
)

tibble::as_tibble(data)

SORTIE

# A tibble: 1,116 × 69
   event   tracked_entity org_unit ` SMC-CR Scan QR Code` SMC-CR Did the child…¹
   <chr>   <chr>          <chr>    <chr>                  <chr>
 1 bgSDQb… yv7MOkGD23q    Keneba   SMC23-0510989          1
 2 y4MKmP… nibnZ8h0Nse    Keneba   SMC2021-018089         1
 3 yK7VG3… nibnZ8h0Nse    Keneba   SMC2021-018089         1
 4 EmNflz… nibnZ8h0Nse    Keneba   SMC2021-018089         1
 5 UF96ms… nibnZ8h0Nse    Keneba   SMC2021-018089         1
 6 guQTwc… FomREQ2it4n    Keneba   SMC23-0510012          1
 7 jbkRkL… FomREQ2it4n    Keneba   SMC23-0510012          1
 8 AEeype… FomREQ2it4n    Keneba   SMC23-0510012          1
 9 R30SPs… E5oAWGcdFT4    Keneba   koika-smc-22897        1
10 nr03Qy… E5oAWGcdFT4    Keneba   koika-smc-22897        1
# ℹ 1,106 more rows
# ℹ abbreviated name: ¹​`SMC-CR Did the child  previously received a card?`
# ℹ 64 more variables: `SMC-CR Child First Name1` <chr>,
#   `SMC-CR Child Last Name` <chr>, `SMC-CR Date of Birth` <chr>,
#   `SMC-CR Select Age Category  ` <chr>, `SMC-CR Child gender1` <chr>,
#   `SMC-CR Mother/Person responsible full name` <chr>,
#   `SMC-CR Mother/Person responsible phone number1` <chr>, …
…
R

# obtenir les unités organisationnelles qui exécutent un programme "E5IUQuHg3Mg"
target_org_units <- readepi::get_program_org_units(
  login = dhis2_login,
  program = "E5IUQuHg3Mg",
  org_units = org_units
)

tibble::as_tibble(target_org_units)

SORTIE

# A tibble: 26 × 3
   org_unit_ids levels            org_unit_names
   <chr>        <chr>             <chr>
 1 UrLrbEiWk3J  Town/Village_name Sare Sibo
 2 wlVsFVeHSTx  Town/Village_name Jawo Kunda
 3 kp0ZYUEqJE8  Town/Village_name Chewal
 4 Wr3htgGxhBv  Town/Village_name Madinayel
 5 psyHoqeN2Tw  Town/Village_name Bolibanna
 6 MGBYonFM4y3  Town/Village_name Sare Mala
 7 GcLhRNAFppR  Town/Village_name Keneba
 8 y1Z3KuvQyhI  Town/Village_name Brikama
 9 W3vH9yBUSei  Town/Village_name Gidda
10 ISbNWYieHY8  Town/Village_name Song Kunda
# ℹ 16 more rows
…
R

# obtenir la liste des noms de maladies
disease_names <- readepi::sormas_get_diseases(
  base_url = "https://demo.sormas.org/sormas-rest",
  user_name = "SurvSup",
  password = "Lk5R7JXeZSEc"
)

tibble::as_tibble(disease_names)

SORTIE

# A tibble: 65 × 2
   disease            active
   <chr>              <chr>
 1 AFP                TRUE
 2 CHOLERA            TRUE
 3 CONGENITAL_RUBELLA TRUE
 4 CSM                TRUE
 5 DENGUE             TRUE
 6 EVD                TRUE
 7 GUINEA_WORM        TRUE
 8 LASSA              TRUE
 9 MEASLES            TRUE
10 MONKEYPOX          TRUE
# ℹ 55 more rows
…
# Importer les données
# supposons que le chemin d'accès au ficher est: data/simulated_ebola_2.csv
raw_ebola_data <- rio::import(
  here::here("data", "simulated_ebola_2.csv")
) %>%
  dplyr::as_tibble() # convertir en tibble

R

# Afficher les dix premières lignes du data frame
raw_ebola_data

SORTIE

# A tibble: 15,003 × 9
      V1 `case id` age     gender status `date onset` `date sample` lab   region
   <int>     <int> <chr>   <chr>  <chr>  <chr>        <chr>         <lgl> <chr>
 1     1     14905 90      1      "conf… 03/15/2015   06/04/2015    NA    valdr…
 2     2     13043 twenty… 2      ""     Sep /11/13   03/01/2014    NA    valdr…
 3     3     14364 54      f       <NA>  09/02/2014   03/03/2015    NA    valdr…
 4     4     14675 ninety  <NA>   ""     10/19/2014   31/ 12 /14    NA    valdr…
 5     5     12648 74      F      ""     08/06/2014   10/10/2016    NA    valdr…
 6     5     12648 74      F      ""     08/06/2014   10/10/2016    NA    valdr…
 7     6     14274 sevent… female ""     Apr /05/15   01/23/2016    NA    valdr…
 8     7     14132 sixteen male   "conf… Dec /29/Y    05/10/2015    NA    valdr…
 9     8     14715 44      f      "conf… Apr /06/Y    04/24/2016    NA    valdr…
10     9     13435 26      1      ""     09/07/2014   20/ 09 /14    NA    valdr…
# ℹ 14,993 more rows
…
R

sim_ebola_data <- cleanepi::replace_missing_values(
  data = sim_ebola_data,
  na_strings = ""
)

sim_ebola_data

SORTIE

# A tibble: 15,000 × 8
      v1 case_id age         gender status    date_onset date_sample row_id
   <int>   <int> <chr>       <chr>  <chr>     <chr>      <chr>        <int>
 1     1   14905 90          1      confirmed 03/15/2015 06/04/2015       1
 2     2   13043 twenty-five 2      <NA>      Sep /11/13 03/01/2014       2
 3     3   14364 54          f      <NA>      09/02/2014 03/03/2015       3
 4     4   14675 ninety      <NA>   <NA>      10/19/2014 31/ 12 /14       4
 5     5   12648 74          F      <NA>      08/06/2014 10/10/2016       5
 6     6   14274 seventy-six female <NA>      Apr /05/15 01/23/2016       7
 7     7   14132 sixteen     male   confirmed Dec /29/Y  05/10/2015       8
 8     8   14715 44          f      confirmed Apr /06/Y  04/24/2016       9
 9     9   13435 26          1      <NA>      09/07/2014 20/ 09 /14      10
10    10   14816 thirty      f      <NA>      06/29/2015 06/02/2015      11
# ℹ 14,990 more rows
…
R

sim_ebola_data <- cleanepi::standardize_dates(
  sim_ebola_data,
  target_columns = c("date_onset", "date_sample")
)

sim_ebola_data

SORTIE

# A tibble: 15,000 × 8
      v1 case_id age         gender status    date_onset date_sample row_id
   <int> <chr>   <chr>       <chr>  <chr>     <date>     <date>       <int>
 1     1 14905   90          1      confirmed 2015-03-15 2015-06-04       1
 2     2 13043   twenty-five 2      <NA>      2013-09-11 2014-03-01       2
 3     3 14364   54          f      <NA>      2014-09-02 2015-03-03       3
 4     4 14675   ninety      <NA>   <NA>      2014-10-19 2031-12-14       4
 5     5 12648   74          F      <NA>      2014-08-06 2016-10-10       5
 6     6 14274   seventy-six female <NA>      2015-04-05 2016-01-23       7
 7     7 14132   sixteen     male   confirmed NA         2015-05-10       8
 8     8 14715   44          f      confirmed NA         2016-04-24       9
 9     9 13435   26          1      <NA>      2014-09-07 2020-09-14      10
10    10 14816   thirty      f      <NA>      2015-06-29 2015-06-02      11
# ℹ 14,990 more rows
…
R

sim_ebola_data <- cleanepi::convert_to_numeric(
  data = sim_ebola_data,
  target_columns = "age"
)

sim_ebola_data

SORTIE

# A tibble: 15,000 × 8
      v1 case_id   age gender status    date_onset date_sample row_id
   <int> <chr>   <dbl> <chr>  <chr>     <date>     <date>       <int>
 1     1 14905      90 1      confirmed 2015-03-15 2015-06-04       1
 2     2 13043      25 2      <NA>      2013-09-11 2014-03-01       2
 3     3 14364      54 f      <NA>      2014-09-02 2015-03-03       3
 4     4 14675      90 <NA>   <NA>      2014-10-19 2031-12-14       4
 5     5 12648      74 F      <NA>      2014-08-06 2016-10-10       5
 6     6 14274      76 female <NA>      2015-04-05 2016-01-23       7
 7     7 14132      16 male   confirmed NA         2015-05-10       8
 8     8 14715      44 f      confirmed NA         2016-04-24       9
 9     9 13435      26 1      <NA>      2014-09-07 2020-09-14      10
10    10 14816      30 f      <NA>      2015-06-29 2015-06-02      11
# ℹ 14,990 more rows
…
R

sim_ebola_data <- cleanepi::clean_using_dictionary(
  data = sim_ebola_data,
  dictionary = test_dict
)

sim_ebola_data

SORTIE

# A tibble: 15,000 × 8
      v1 case_id   age gender status    date_onset date_sample row_id
   <int> <chr>   <dbl> <chr>  <chr>     <date>     <date>       <int>
 1     1 14905      90 male   confirmed 2015-03-15 2015-06-04       1
 2     2 13043      25 female <NA>      2013-09-11 2014-03-01       2
 3     3 14364      54 female <NA>      2014-09-02 2015-03-03       3
 4     4 14675      90 <NA>   <NA>      2014-10-19 2031-12-14       4
 5     5 12648      74 female <NA>      2014-08-06 2016-10-10       5
 6     6 14274      76 female <NA>      2015-04-05 2016-01-23       7
 7     7 14132      16 male   confirmed NA         2015-05-10       8
 8     8 14715      44 female confirmed NA         2016-04-24       9
 9     9 13435      26 male   <NA>      2014-09-07 2020-09-14      10
10    10 14816      30 female <NA>      2015-06-29 2015-06-02      11
# ℹ 14,990 more rows
…
sim_ebola_data <- cleanepi::timespan(
  data = sim_ebola_data,
  target_column = "date_sample",
  end_date = as.Date("2025-01-03"),
  span_unit = "years",
  span_column_name = "years_since_collection",
  span_remainder_unit = "months"
)

sim_ebola_data %>%
  dplyr::select(case_id, date_sample, years_since_collection, remainder_months)

SORTIE

# A tibble: 15,000 × 4
   case_id date_sample years_since_collection remainder_months
   <chr>   <date>                       <dbl>            <dbl>
 1 14905   2015-06-04                       9                7
 2 13043   2014-03-01                      10               10
 3 14364   2015-03-03                       9               10
 4 14675   2031-12-14                      -6              -11
 5 12648   2016-10-10                       8                2
 6 14274   2016-01-23                       8               11
 7 14132   2015-05-10                       9                7
 8 14715   2016-04-24                       8                8
 9 13435   2020-09-14                       4                3
10 14816   2015-06-02                       9                7
# ℹ 14,990 more rows
…
# lecture des données
# supposons que le chemin d'acces au fichier
# est: data/simulated_ebola_2.csv, alors:
cleaned_data <- rio::import(
  here::here("data", "cleaned_data.csv")
) %>%
  dplyr::as_tibble()

# voir un aperçu des 10 premieres ligne du tableau de donnees
cleaned_data

SORTIE

# A tibble: 15,000 × 10
     v_1 case_id   age gender status    date_onset date_sample row_id
   <int>   <int> <dbl> <chr>  <chr>     <IDate>    <IDate>      <int>
 1     1   14905    90 male   confirmed 2015-03-15 2015-04-06       1
 2     2   13043    25 female <NA>      2013-09-11 2014-01-03       2
 3     3   14364    54 female <NA>      2014-02-09 2015-03-03       3
 4     4   14675    90 <NA>   <NA>      2014-10-19 2014-12-31       4
 5     5   12648    74 female <NA>      2014-06-08 2016-10-10       5
 6     6   14274    76 female <NA>      2015-04-05 2016-01-23       7
 7     7   14132    16 male   confirmed NA         2015-10-05       8
 8     8   14715    44 female confirmed NA         2016-04-24       9
 9     9   13435    26 male   <NA>      2014-07-09 2014-09-20      10
10    10   14816    30 female <NA>      2015-06-29 2015-02-06      11
# ℹ 14,990 more rows
# ℹ 2 more variables: years_since_collection <int>, remainder_months <int>
…
# creer un objet de type linelist a partir des donnees nettoyees
linelist_data <- linelist::make_linelist(
  x = cleaned_data,         # les donnees d'entree
  id = "case_id",   # colonne avec les identifiants uniques des individus
  date_onset = "date_onset", # colonne avec la date d'apparition des symptomes
  gender = "gender"          # colonne ayant le genre des individus
)

# voir un aperçu de l'objet cree
linelist_data

SORTIE

// linelist object
# A tibble: 15,000 × 10
     v_1 case_id   age gender status    date_onset date_sample row_id
   <int>   <int> <dbl> <chr>  <chr>     <IDate>    <IDate>      <int>
 1     1   14905    90 male   confirmed 2015-03-15 2015-04-06       1
 2     2   13043    25 female <NA>      2013-09-11 2014-01-03       2
 3     3   14364    54 female <NA>      2014-02-09 2015-03-03       3
 4     4   14675    90 <NA>   <NA>      2014-10-19 2014-12-31       4
 5     5   12648    74 female <NA>      2014-06-08 2016-10-10       5
 6     6   14274    76 female <NA>      2015-04-05 2016-01-23       7
 7     7   14132    16 male   confirmed NA         2015-10-05       8
 8     8   14715    44 female confirmed NA         2016-04-24       9
 9     9   13435    26 male   <NA>      2014-07-09 2014-09-20      10
10    10   14816    30 female <NA>      2015-06-29 2015-02-06      11
# ℹ 14,990 more rows
# ℹ 2 more variables: years_since_collection <int>, remainder_months <int>
…
A objet linelist ressemble à un data frame mais offre
des caractéristiques et fonctionnalités plus riches. Les librairies qui
prennent en compte les objets linelist peuvent exploiter ces
fonctionnalités. Par exemple, vous pouvez extraire un data frame
contenant uniquement les colonnes étiquetées à l’aide de la fonction
linelist::tags_df() comme indiqué ci-dessous :

R

# extraire uniquement les colonnes étiquetées
linelist::tags_df(linelist_data)

SORTIE

# A tibble: 15,000 × 3
      id date_onset gender
   <int> <IDate>    <chr>
 1 14905 2015-03-15 male
 2 13043 2013-09-11 female
 3 14364 2014-02-09 female
 4 14675 2014-10-19 <NA>
 5 12648 2014-06-08 female
 6 14274 2015-04-05 female
 7 14132 NA         male
 8 14715 NA         female
 9 13435 2014-07-09 male
10 14816 2015-06-29 female
# ℹ 14,990 more rows
…
# identifier les doublons uniquement à travers les colonnes etiquetees
linelist_data %>%
  cleanepi::find_duplicates(target_columns = "linelist_tags")

SORTIE

! Found 177 duplicated rows in the dataset.
ℹ Use `attr(dat, "report")[["duplicated_rows"]]` to access them, where "dat" is
  the object used to store the output from this operation.

SORTIE

// linelist object
# A tibble: 15,000 × 10
     v_1 case_id   age gender status    date_onset date_sample row_id
   <int>   <int> <dbl> <chr>  <chr>     <IDate>    <IDate>      <int>
 1     1   14905    90 male   confirmed 2015-03-15 2015-04-06       1
 2     2   13043    25 female <NA>      2013-09-11 2014-01-03       2
 3     3   14364    54 female <NA>      2014-02-09 2015-03-03       3
 4     4   14675    90 <NA>   <NA>      2014-10-19 2014-12-31       4
 5     5   12648    74 female <NA>      2014-06-08 2016-10-10       5
 6     6   14274    76 female <NA>      2015-04-05 2016-01-23       7
 7     7   14132    16 male   confirmed NA         2015-10-05       8
 8     8   14715    44 female confirmed NA         2016-04-24       9
 9     9   13435    26 male   <NA>      2014-07-09 2014-09-20      10
10    10   14816    30 female <NA>      2015-06-29 2015-02-06      11
# ℹ 14,990 more rows
# ℹ 2 more variables: years_since_collection <int>, remainder_months <int>
…
AVERTISSEMENT

Warning: Number of cases exceeds maximum outbreak size.
Returning data early with 1546 cases and 3059 total contacts (including cases).

R

# Voir un aperçu des donnees simulees
sim_data

SORTIE

# A tibble: 1,546 × 13
      id case_name           case_type sex     age date_onset date_reporting
   <int> <chr>               <chr>     <chr> <int> <date>     <date>
 1     1 Zahra al-Masri      probable  f        37 2023-01-01 2023-01-01
 2     3 Waleeda al-Muhammad probable  f        12 2023-01-11 2023-01-11
 3     6 Rhett Jackson       confirmed m        53 2023-01-18 2023-01-18
 4     8 Sunnique Sims       confirmed f        36 2023-01-23 2023-01-23
 5    11 Danielle Griggs     probable  f        77 2023-01-30 2023-01-30
 6    14 Mohamed Parker      probable  m        37 2023-01-24 2023-01-24
 7    15 Melissa Eriacho     probable  f        67 2023-01-31 2023-01-31
 8    16 Maria Laughlin      probable  f        80 2023-01-30 2023-01-30
 9    20 Phillip Park        confirmed m        70 2023-01-27 2023-01-27
10    21 Dewarren Newton     probable  m        87 2023-02-09 2023-02-09
# ℹ 1,536 more rows
# ℹ 6 more variables: date_admission <date>, outcome <chr>,
#   date_outcome <date>, date_first_contact <date>, date_last_contact <date>,
#   ct_value <dbl>
…
