…
``` r
# Afficher les dix premières lignes du data frame
raw_ebola_data
```

``` output
# A tibble: 15,003 × 9
      V1 `case id` age     gender status `date onset` `date sample` lab   region
   <int>     <int> <chr>   <chr>  <chr>  <chr>        <chr>         <lgl> <chr> 
 1     1     14905 90      1      "conf… 03/15/2015   06/04/2015    NA    valdr…
 2     2     13043 twenty… 2      ""     Sep /11/13   03/01/2014    NA    valdr…
 3     3     14364 54      f       <NA>  09/02/2014   03/03/2015    NA    valdr…
 4     4     14675 ninety  <NA>   ""     10/19/2014   31/ 12 /14    NA    valdr…
 5     5     12648 74      F      ""     08/06/2014   10/10/2016    NA    valdr…
 6     5     12648 74      F      ""     08/06/2014   10/10/2016    NA    valdr…
 7     6     14274 sevent… female ""     Apr /05/15   01/23/2016    NA    valdr…
 8     7     14132 sixteen male   "conf… Dec /29/Y    05/10/2015    NA    valdr…
 9     8     14715 44      f      "conf… Apr /06/Y    04/24/2016    NA    valdr…
10     9     13435 26      1      ""     09/07/2014   20/ 09 /14    NA    valdr…
# ℹ 14,993 more rows
```
…
Outre les irrégularités, les données brutes peuvent contenir des valeurs manquantes, qui peuvent être representées par différentes chaînes de caractères (par ex. `"NA"`, `""`, `character(0)`). Pour garantir une analyse solide, il est conseillé de remplacer toutes les valeurs manquantes par `NA` dans l'ensemble du jeu de données. Vous trouverez ci-dessous un extrait de code démontrant comment vous pouvez remplacer les valeures manquantes, représentées par une chaîne vide `""`, en utilisant la librairie `{cleanepi}`:


``` r
sim_ebola_data <- cleanepi::replace_missing_values(
  data = sim_ebola_data,
  na_strings = ""
)

sim_ebola_data
```

``` output
# A tibble: 15,000 × 8
      v1 case_id age         gender status    date_onset date_sample row_id
   <int>   <int> <chr>       <chr>  <chr>     <chr>      <chr>        <int>
 1     1   14905 90          1      confirmed 03/15/2015 06/04/2015       1
 2     2   13043 twenty-five 2      <NA>      Sep /11/13 03/01/2014       2
 3     3   14364 54          f      <NA>      09/02/2014 03/03/2015       3
 4     4   14675 ninety      <NA>   <NA>      10/19/2014 31/ 12 /14       4
 5     5   12648 74          F      <NA>      08/06/2014 10/10/2016       5
 6     6   14274 seventy-six female <NA>      Apr /05/15 01/23/2016       7
 7     7   14132 sixteen     male   confirmed Dec /29/Y  05/10/2015       8
 8     8   14715 44          f      confirmed Apr /06/Y  04/24/2016       9
 9     9   13435 26          1      <NA>      09/07/2014 20/ 09 /14      10
10    10   14816 thirty      f      <NA>      06/29/2015 06/02/2015      11
# ℹ 14,990 more rows
```
…
``` r
sim_ebola_data <- cleanepi::standardize_dates(
  sim_ebola_data,
  target_columns = c("date_onset", "date_sample")
)

sim_ebola_data
```

``` output
# A tibble: 15,000 × 8
      v1 case_id age         gender status    date_onset date_sample row_id
   <int> <chr>   <chr>       <chr>  <chr>     <date>     <date>       <int>
 1     1 14905   90          1      confirmed 2015-03-15 2015-06-04       1
 2     2 13043   twenty-five 2      <NA>      2013-09-11 2014-03-01       2
 3     3 14364   54          f      <NA>      2014-09-02 2015-03-03       3
 4     4 14675   ninety      <NA>   <NA>      2014-10-19 2031-12-14       4
 5     5 12648   74          F      <NA>      2014-08-06 2016-10-10       5
 6     6 14274   seventy-six female <NA>      2015-04-05 2016-01-23       7
 7     7 14132   sixteen     male   confirmed NA         2015-05-10       8
 8     8 14715   44          f      confirmed NA         2016-04-24       9
 9     9 13435   26          1      <NA>      2014-09-07 2020-09-14      10
10    10 14816   thirty      f      <NA>      2015-06-29 2015-06-02      11
# ℹ 14,990 more rows
```
…
Dans les données brutes, certaines colonnes peuvent contenir un mélange de valeurs numériques et de caractères, et vous voudrez souvent convertir les caractères en numériques. Par exemple, certaines valeurs de la colonne de 'age' de notre jeu de données simulées sont écrites en mots. Dans `{cleanepi}` la fonction `convert_to_numeric()` permet d'effectuer la conversion de ces mots en chiffres, comme illustré ci-dessous.


``` r
sim_ebola_data <- cleanepi::convert_to_numeric(
  data = sim_ebola_data,
  target_columns = "age"
)

sim_ebola_data
```

``` output
# A tibble: 15,000 × 8
      v1 case_id   age gender status    date_onset date_sample row_id
   <int> <chr>   <dbl> <chr>  <chr>     <date>     <date>       <int>
 1     1 14905      90 1      confirmed 2015-03-15 2015-06-04       1
 2     2 13043      25 2      <NA>      2013-09-11 2014-03-01       2
 3     3 14364      54 f      <NA>      2014-09-02 2015-03-03       3
 4     4 14675      90 <NA>   <NA>      2014-10-19 2031-12-14       4
 5     5 12648      74 F      <NA>      2014-08-06 2016-10-10       5
 6     6 14274      76 female <NA>      2015-04-05 2016-01-23       7
 7     7 14132      16 male   confirmed NA         2015-05-10       8
 8     8 14715      44 f      confirmed NA         2016-04-24       9
 9     9 13435      26 1      <NA>      2014-09-07 2020-09-14      10
10    10 14816      30 f      <NA>      2015-06-29 2015-06-02      11
# ℹ 14,990 more rows
```
…
Nous pouvons maintenant utiliser ce dictionnaire pour substituer les valeurs de la colonne "gender" selon des catégories prédéfinies. Vous trouverez ci-dessous un exemple de code démontrant comment utiliser la fonction `clean_using_dictionary()` de la librairie {cleanepi} allant dans ce sens.


``` r
sim_ebola_data <- cleanepi::clean_using_dictionary(
  data = sim_ebola_data,
  dictionary = test_dict
)

sim_ebola_data
```

``` output
# A tibble: 15,000 × 8
      v1 case_id   age gender status    date_onset date_sample row_id
   <int> <chr>   <dbl> <chr>  <chr>     <date>     <date>       <int>
 1     1 14905      90 male   confirmed 2015-03-15 2015-06-04       1
 2     2 13043      25 female <NA>      2013-09-11 2014-03-01       2
 3     3 14364      54 female <NA>      2014-09-02 2015-03-03       3
 4     4 14675      90 <NA>   <NA>      2014-10-19 2031-12-14       4
 5     5 12648      74 female <NA>      2014-08-06 2016-10-10       5
 6     6 14274      76 female <NA>      2015-04-05 2016-01-23       7
 7     7 14132      16 male   confirmed NA         2015-05-10       8
 8     8 14715      44 female confirmed NA         2016-04-24       9
 9     9 13435      26 male   <NA>      2014-09-07 2020-09-14      10
10    10 14816      30 female <NA>      2015-06-29 2015-06-02      11
# ℹ 14,990 more rows
```
…
sim_ebola_data %>%
  dplyr::select(case_id, date_sample, years_since_collection, remainder_months)
```

``` output
# A tibble: 15,000 × 4
   case_id date_sample years_since_collection remainder_months
   <chr>   <date>                       <dbl>            <dbl>
 1 14905   2015-06-04                       9                7
 2 13043   2014-03-01                      10               10
 3 14364   2015-03-03                       9               10
 4 14675   2031-12-14                      -6              -11
 5 12648   2016-10-10                       8                2
 6 14274   2016-01-23                       8               11
 7 14132   2015-05-10                       9                7
 8 14715   2016-04-24                       8                8
 9 13435   2020-09-14                       4                3
10 14816   2015-06-02                       9                7
# ℹ 14,990 more rows
```
…
