Lire et nettoyer les données de cas, puis créer une tableau de données de cas pour l’analyse d’épidémie avec R: Agréger et visualiser les données épidémiologiques
…
AVERTISSEMENT

Warning: Number of cases exceeds maximum outbreak size.
Returning data early with 1546 cases and 3059 total contacts (including cases).

R

# Voir un aperçu des donnees simulees
sim_data

SORTIE

# A tibble: 1,546 × 13
      id case_name           case_type sex     age date_onset date_reporting
   <int> <chr>               <chr>     <chr> <int> <date>     <date>
 1     1 Zahra al-Masri      probable  f        37 2023-01-01 2023-01-01
 2     3 Waleeda al-Muhammad probable  f        12 2023-01-11 2023-01-11
 3     6 Rhett Jackson       confirmed m        53 2023-01-18 2023-01-18
 4     8 Sunnique Sims       confirmed f        36 2023-01-23 2023-01-23
 5    11 Danielle Griggs     probable  f        77 2023-01-30 2023-01-30
 6    14 Mohamed Parker      probable  m        37 2023-01-24 2023-01-24
 7    15 Melissa Eriacho     probable  f        67 2023-01-31 2023-01-31
 8    16 Maria Laughlin      probable  f        80 2023-01-30 2023-01-30
 9    20 Phillip Park        confirmed m        70 2023-01-27 2023-01-27
10    21 Dewarren Newton     probable  m        87 2023-02-09 2023-02-09
# ℹ 1,536 more rows
# ℹ 6 more variables: date_admission <date>, outcome <chr>,
#   date_outcome <date>, date_first_contact <date>, date_last_contact <date>,
#   ct_value <dbl>
…
