Lire et nettoyer les données de cas, puis créer une tableau de données de cas pour l’analyse d’épidémie avec R: Lecture des données épidémiologiques
…
# lire les données
# exemple:
# si le chemin d'accès au fichier est "data/raw-data/ebola_cases_2.csv",
# alors:
ebola_confirmed <- rio::import(
  here::here("data", "ebola_cases_2.csv")
) %>%
  dplyr::as_tibble()

# obtenir un aperçu des données
ebola_confirmed

SORTIE

# A tibble: 120 × 4
    year month   day confirm
   <int> <int> <int>   <int>
 1  2014     5    18       1
 2  2014     5    20       2
 3  2014     5    21       4
 4  2014     5    22       6
 5  2014     5    23       1
 6  2014     5    24       2
 7  2014     5    26      10
 8  2014     5    27       8
 9  2014     5    28       2
10  2014     5    29      12
# ℹ 110 more rows
…
R

dplyr::left_join(author, family_author, keep = TRUE) %>%
  dplyr::collect()

SORTIE

Joining with `by = join_by(author_id)`

SORTIE

# A tibble: 4,874 × 4
   author_id.x name         author_id.y rfam_acc
         <int> <chr>              <int> <chr>
 1          44 Osuch I               44 RF01571
 2           2 Argasinska J           2 RF02588
 3           2 Argasinska J           2 RF02587
 4           2 Argasinska J           2 RF02586
 5           2 Argasinska J           2 RF02585
 6           2 Argasinska J           2 RF02549
 7           8 Boursnell C            8 RF02002
 8          56 Weinberg Z            56 RF01741
 9          39 Moxon SJ              39 RF00496
10          39 Moxon SJ              39 RF00469
# ℹ 4,864 more rows
…
# importer les donnees a partir de DHIS2 en utilisant les noms
data <- readepi::read_dhis2(
  login = dhis2_login,
  org_unit = "Keneba",
  program = "Child Registration & Treatment "
)

tibble::as_tibble(data)

SORTIE

# A tibble: 1,116 × 69
   event   tracked_entity org_unit ` SMC-CR Scan QR Code` SMC-CR Did the child…¹
   <chr>   <chr>          <chr>    <chr>                  <chr>
 1 bgSDQb… yv7MOkGD23q    Keneba   SMC23-0510989          1
 2 y4MKmP… nibnZ8h0Nse    Keneba   SMC2021-018089         1
 3 yK7VG3… nibnZ8h0Nse    Keneba   SMC2021-018089         1
 4 EmNflz… nibnZ8h0Nse    Keneba   SMC2021-018089         1
 5 UF96ms… nibnZ8h0Nse    Keneba   SMC2021-018089         1
 6 guQTwc… FomREQ2it4n    Keneba   SMC23-0510012          1
 7 jbkRkL… FomREQ2it4n    Keneba   SMC23-0510012          1
 8 AEeype… FomREQ2it4n    Keneba   SMC23-0510012          1
 9 R30SPs… E5oAWGcdFT4    Keneba   koika-smc-22897        1
10 nr03Qy… E5oAWGcdFT4    Keneba   koika-smc-22897        1
# ℹ 1,106 more rows
# ℹ abbreviated name: ¹​`SMC-CR Did the child  previously received a card?`
# ℹ 64 more variables: `SMC-CR Child First Name1` <chr>,
#   `SMC-CR Child Last Name` <chr>, `SMC-CR Date of Birth` <chr>,
#   `SMC-CR Select Age Category  ` <chr>, `SMC-CR Child gender1` <chr>,
#   `SMC-CR Mother/Person responsible full name` <chr>,
#   `SMC-CR Mother/Person responsible phone number1` <chr>, …
…
R

# obtenir les unités organisationnelles qui exécutent un programme "E5IUQuHg3Mg"
target_org_units <- readepi::get_program_org_units(
  login = dhis2_login,
  program = "E5IUQuHg3Mg",
  org_units = org_units
)

tibble::as_tibble(target_org_units)

SORTIE

# A tibble: 26 × 3
   org_unit_ids levels            org_unit_names
   <chr>        <chr>             <chr>
 1 UrLrbEiWk3J  Town/Village_name Sare Sibo
 2 wlVsFVeHSTx  Town/Village_name Jawo Kunda
 3 kp0ZYUEqJE8  Town/Village_name Chewal
 4 Wr3htgGxhBv  Town/Village_name Madinayel
 5 psyHoqeN2Tw  Town/Village_name Bolibanna
 6 MGBYonFM4y3  Town/Village_name Sare Mala
 7 GcLhRNAFppR  Town/Village_name Keneba
 8 y1Z3KuvQyhI  Town/Village_name Brikama
 9 W3vH9yBUSei  Town/Village_name Gidda
10 ISbNWYieHY8  Town/Village_name Song Kunda
# ℹ 16 more rows
…
R

# obtenir la liste des noms de maladies
disease_names <- readepi::sormas_get_diseases(
  base_url = "https://demo.sormas.org/sormas-rest",
  user_name = "SurvSup",
  password = "Lk5R7JXeZSEc"
)

tibble::as_tibble(disease_names)

SORTIE

# A tibble: 65 × 2
   disease            active
   <chr>              <chr>
 1 AFP                TRUE
 2 CHOLERA            TRUE
 3 CONGENITAL_RUBELLA TRUE
 4 CSM                TRUE
 5 DENGUE             TRUE
 6 EVD                TRUE
 7 GUINEA_WORM        TRUE
 8 LASSA              TRUE
 9 MEASLES            TRUE
10 MONKEYPOX          TRUE
# ℹ 55 more rows
…
