Lire et nettoyer les données de cas, puis créer une tableau de données de cas pour l’analyse d’épidémie avec R: Lecture des données épidémiologiques
…
# lire les données
# exemple:
# si le chemin d'accès au fichier est "data/raw-data/ebola_cases_2.csv",
# alors:
ebola_confirmed <- rio::import(
  here::here("data", "ebola_cases_2.csv")
) %>%
  dplyr::as_tibble()

# obtenir un aperçu des données
ebola_confirmed

SORTIE

# A tibble: 120 × 4
    year month   day confirm
   <int> <int> <int>   <int>
 1  2014     5    18       1
 2  2014     5    20       2
 3  2014     5    21       4
 4  2014     5    22       6
 5  2014     5    23       1
 6  2014     5    24       2
 7  2014     5    26      10
 8  2014     5    27       8
 9  2014     5    28       2
10  2014     5    29      12
# ℹ 110 more rows
…
