Lire et nettoyer les données de cas, puis créer une tableau de données de cas pour l’analyse d’épidémie avec R: Valider les données épidémiologiques
…
# lecture des données
# supposons que le chemin d'acces au fichier
# est: data/simulated_ebola_2.csv, alors:
cleaned_data <- rio::import(
  here::here("data", "cleaned_data.csv")
) %>%
  dplyr::as_tibble()

# voir un aperçu des 10 premieres ligne du tableau de donnees
cleaned_data

SORTIE

# A tibble: 15,000 × 10
     v_1 case_id   age gender status    date_onset date_sample row_id
   <int>   <int> <dbl> <chr>  <chr>     <IDate>    <IDate>      <int>
 1     1   14905    90 male   confirmed 2015-03-15 2015-04-06       1
 2     2   13043    25 female <NA>      2013-09-11 2014-01-03       2
 3     3   14364    54 female <NA>      2014-02-09 2015-03-03       3
 4     4   14675    90 <NA>   <NA>      2014-10-19 2014-12-31       4
 5     5   12648    74 female <NA>      2014-06-08 2016-10-10       5
 6     6   14274    76 female <NA>      2015-04-05 2016-01-23       7
 7     7   14132    16 male   confirmed NA         2015-10-05       8
 8     8   14715    44 female confirmed NA         2016-04-24       9
 9     9   13435    26 male   <NA>      2014-07-09 2014-09-20      10
10    10   14816    30 female <NA>      2015-06-29 2015-02-06      11
# ℹ 14,990 more rows
# ℹ 2 more variables: years_since_collection <int>, remainder_months <int>
…
# creer un objet de type linelist a partir des donnees nettoyees
linelist_data <- linelist::make_linelist(
  x = cleaned_data,         # les donnees d'entree
  id = "case_id",   # colonne avec les identifiants uniques des individus
  date_onset = "date_onset", # colonne avec la date d'apparition des symptomes
  gender = "gender"          # colonne ayant le genre des individus
)

# voir un aperçu de l'objet cree
linelist_data

SORTIE

// linelist object
# A tibble: 15,000 × 10
     v_1 case_id   age gender status    date_onset date_sample row_id
   <int>   <int> <dbl> <chr>  <chr>     <IDate>    <IDate>      <int>
 1     1   14905    90 male   confirmed 2015-03-15 2015-04-06       1
 2     2   13043    25 female <NA>      2013-09-11 2014-01-03       2
 3     3   14364    54 female <NA>      2014-02-09 2015-03-03       3
 4     4   14675    90 <NA>   <NA>      2014-10-19 2014-12-31       4
 5     5   12648    74 female <NA>      2014-06-08 2016-10-10       5
 6     6   14274    76 female <NA>      2015-04-05 2016-01-23       7
 7     7   14132    16 male   confirmed NA         2015-10-05       8
 8     8   14715    44 female confirmed NA         2016-04-24       9
 9     9   13435    26 male   <NA>      2014-07-09 2014-09-20      10
10    10   14816    30 female <NA>      2015-06-29 2015-02-06      11
# ℹ 14,990 more rows
# ℹ 2 more variables: years_since_collection <int>, remainder_months <int>
…
A objet linelist ressemble à un data frame mais offre
des caractéristiques et fonctionnalités plus riches. Les librairies qui
prennent en compte les objets linelist peuvent exploiter ces
fonctionnalités. Par exemple, vous pouvez extraire un data frame
contenant uniquement les colonnes étiquetées à l’aide de la fonction
linelist::tags_df() comme indiqué ci-dessous :

R

# extraire uniquement les colonnes étiquetées
linelist::tags_df(linelist_data)

SORTIE

# A tibble: 15,000 × 3
      id date_onset gender
   <int> <IDate>    <chr>
 1 14905 2015-03-15 male
 2 13043 2013-09-11 female
 3 14364 2014-02-09 female
 4 14675 2014-10-19 <NA>
 5 12648 2014-06-08 female
 6 14274 2015-04-05 female
 7 14132 NA         male
 8 14715 NA         female
 9 13435 2014-07-09 male
10 14816 2015-06-29 female
# ℹ 14,990 more rows
…
# identifier les doublons uniquement à travers les colonnes etiquetees
linelist_data %>%
  cleanepi::find_duplicates(target_columns = "linelist_tags")

SORTIE

! Found 177 duplicated rows in the dataset.
ℹ Use `attr(dat, "report")[["duplicated_rows"]]` to access them, where "dat" is
  the object used to store the output from this operation.

SORTIE

// linelist object
# A tibble: 15,000 × 10
     v_1 case_id   age gender status    date_onset date_sample row_id
   <int>   <int> <dbl> <chr>  <chr>     <IDate>    <IDate>      <int>
 1     1   14905    90 male   confirmed 2015-03-15 2015-04-06       1
 2     2   13043    25 female <NA>      2013-09-11 2014-01-03       2
 3     3   14364    54 female <NA>      2014-02-09 2015-03-03       3
 4     4   14675    90 <NA>   <NA>      2014-10-19 2014-12-31       4
 5     5   12648    74 female <NA>      2014-06-08 2016-10-10       5
 6     6   14274    76 female <NA>      2015-04-05 2016-01-23       7
 7     7   14132    16 male   confirmed NA         2015-10-05       8
 8     8   14715    44 female confirmed NA         2016-04-24       9
 9     9   13435    26 male   <NA>      2014-07-09 2014-09-20      10
10    10   14816    30 female <NA>      2015-06-29 2015-02-06      11
# ℹ 14,990 more rows
# ℹ 2 more variables: years_since_collection <int>, remainder_months <int>
…
